{
	"id": "e5f20cff-041f-6e70-a049-37f99732115b",
	"name": "Questionnaire-filters",
	"description": "",
	"order": [],
	"folders": [
		{
			"id": "f2d0cb40-61e8-adad-cd90-9f93c375ad49",
			"name": "End Points",
			"description": "",
			"order": [
				"f7b8f2b0-f2f0-0fac-03ea-67a40b2e5371",
				"34e36422-bdac-6699-e886-f4fab1e2c704"
			],
			"owner": "1879026"
		},
		{
			"id": "dbd0152b-b667-4ac9-fbf4-35ee7813d563",
			"name": "Events",
			"description": "",
			"order": [
				"23c3cacf-3c59-75d9-538f-51dd7664bf3d",
				"9108d45e-7565-46ac-d555-5d514afe16e7",
				"e3bfdbd3-9dfa-40ce-9fcd-3a69de96abcc",
				"4f96a4b4-099a-4c55-77ff-e3d2e3dc8aa9"
			],
			"owner": "1879026"
		}
	],
	"timestamp": 1498806105548,
	"owner": "1879026",
	"public": false,
	"requests": [
		{
			"id": "23c3cacf-3c59-75d9-538f-51dd7664bf3d",
			"headers": "Authorization: Bearer eyJhbGciOiJIUzI1NiIsInR5cCI6IkpXVCJ9.eyJpc3MiOiJteS1hcHAiLCJpYXQiOiIyMDE1LTEwLTA5VDA1OjExOjI3LjUzNzc3MjdaIiwiZXhwIjpudWxsLCJzdWIiOm51bGwsInRlbmFudCI6Im15LXRlbmFudCIsInNjb3BlIjpudWxsfQ.vVcomx0eqAs8WvFWEB-ntIB8kaijAqEzXB1AC8bNvaM\nContent-Type: application/json\n",
			"headerData": [
				{
					"key": "Authorization",
					"value": "Bearer eyJhbGciOiJIUzI1NiIsInR5cCI6IkpXVCJ9.eyJpc3MiOiJteS1hcHAiLCJpYXQiOiIyMDE1LTEwLTA5VDA1OjExOjI3LjUzNzc3MjdaIiwiZXhwIjpudWxsLCJzdWIiOm51bGwsInRlbmFudCI6Im15LXRlbmFudCIsInNjb3BlIjpudWxsfQ.vVcomx0eqAs8WvFWEB-ntIB8kaijAqEzXB1AC8bNvaM",
					"description": "",
					"enabled": true
				},
				{
					"key": "Content-Type",
					"value": "application/json",
					"description": "",
					"enabled": true
				}
			],
			"url": "http://docitt.dev.lendfoundry.com:5008/questionnaire-filters",
			"queryParams": [],
			"pathVariables": {},
			"pathVariableData": [],
			"preRequestScript": null,
			"method": "GET",
			"collectionId": "e5f20cff-041f-6e70-a049-37f99732115b",
			"data": [],
			"dataMode": "raw",
			"name": "Questionnaire FIlter Events",
			"description": "",
			"descriptionFormat": "html",
			"time": 1499148093175,
			"version": 2,
			"responses": [],
			"tests": null,
			"currentHelper": "normal",
			"helperAttributes": {},
			"isFromCollection": true,
			"collectionRequestId": "9057d088-1c4e-0d68-8b4d-a6bfa2912d00",
			"folder": "dbd0152b-b667-4ac9-fbf4-35ee7813d563",
			"rawModeData": "\t{\r\n    \"events\": [\r\n        {\r\n            \"Name\": \"SectionCompleted\",\r\n            \"TemporaryApplicationNumber\": \"{Data.TemporaryApplicationNumber}\"\r\n        },\r\n\t\t {\r\n            \"Name\": \"UserLoggedIn\",\r\n            \"Username\": \"{Data.Username}\"\r\n        },\r\n\t\t{\r\n            \"Name\": \"EmailSent\",\r\n            \"EntityId\": \"{Data.EntityId}\"\r\n        }\r\n    ]\r\n}"
		},
		{
			"id": "34e36422-bdac-6699-e886-f4fab1e2c704",
			"headers": "Authorization: Bearer {{default_token}}\nContent-Type: application/json\n",
			"headerData": [
				{
					"key": "Authorization",
					"value": "Bearer {{default_token}}",
					"description": "",
					"enabled": true
				},
				{
					"key": "Content-Type",
					"value": "application/json",
					"description": "",
					"enabled": true
				}
			],
			"url": "52.24.116.110:5060/application/TMP0000002116/reminder-email/1.0",
			"queryParams": [],
			"preRequestScript": null,
			"pathVariables": {},
			"pathVariableData": [],
			"method": "POST",
			"data": [],
			"dataMode": "raw",
			"version": 2,
			"tests": null,
			"currentHelper": "normal",
			"helperAttributes": {},
			"time": 1499252975955,
			"name": "Send Reminder",
			"description": "",
			"collectionId": "e5f20cff-041f-6e70-a049-37f99732115b",
			"responses": [],
			"rawModeData": "{\r\n\t\"email\":\"vijay.k@sigmainfo.net\",\r\n\t\"name\":\"Vijay\",\r\n\t\"message\" : \"How are you?\",\r\n\t\"FirstName\": \"Vijay\",\r\n\t\"Lender\":\"Vijay Team\"\r\n}\r\n"
		},
		{
			"id": "4f96a4b4-099a-4c55-77ff-e3d2e3dc8aa9",
			"headers": "Authorization: Bearer eyJhbGciOiJIUzI1NiIsInR5cCI6IkpXVCJ9.eyJpc3MiOiJteS1hcHAiLCJpYXQiOiIyMDE1LTEwLTA5VDA1OjExOjI3LjUzNzc3MjdaIiwiZXhwIjpudWxsLCJzdWIiOm51bGwsInRlbmFudCI6Im15LXRlbmFudCIsInNjb3BlIjpudWxsfQ.vVcomx0eqAs8WvFWEB-ntIB8kaijAqEzXB1AC8bNvaM\nContent-Type: application/json\n",
			"headerData": [
				{
					"key": "Authorization",
					"value": "Bearer eyJhbGciOiJIUzI1NiIsInR5cCI6IkpXVCJ9.eyJpc3MiOiJteS1hcHAiLCJpYXQiOiIyMDE1LTEwLTA5VDA1OjExOjI3LjUzNzc3MjdaIiwiZXhwIjpudWxsLCJzdWIiOm51bGwsInRlbmFudCI6Im15LXRlbmFudCIsInNjb3BlIjpudWxsfQ.vVcomx0eqAs8WvFWEB-ntIB8kaijAqEzXB1AC8bNvaM",
					"description": "",
					"enabled": true
				},
				{
					"key": "Content-Type",
					"value": "application/json",
					"description": "",
					"enabled": true
				}
			],
			"url": "http://docitt.dev.lendfoundry.com:5004/SectionCompleted",
			"queryParams": [],
			"preRequestScript": null,
			"pathVariables": {},
			"pathVariableData": [],
			"method": "POST",
			"data": [],
			"dataMode": "raw",
			"version": 2,
			"tests": null,
			"currentHelper": "normal",
			"helperAttributes": {},
			"time": 1499248760308,
			"name": "Call Event SectionCompleted",
			"description": "",
			"collectionId": "e5f20cff-041f-6e70-a049-37f99732115b",
			"responses": [],
			"folder": "dbd0152b-b667-4ac9-fbf4-35ee7813d563",
			"rawModeData": "{\r\n\"TemporaryApplicationNumber\" : \"TMP0000002396\"\r\n}"
		},
		{
			"id": "9108d45e-7565-46ac-d555-5d514afe16e7",
			"headers": "Authorization: Bearer eyJhbGciOiJIUzI1NiIsInR5cCI6IkpXVCJ9.eyJpc3MiOiJteS1hcHAiLCJpYXQiOiIyMDE1LTEwLTA5VDA1OjExOjI3LjUzNzc3MjdaIiwiZXhwIjpudWxsLCJzdWIiOm51bGwsInRlbmFudCI6Im15LXRlbmFudCIsInNjb3BlIjpudWxsfQ.vVcomx0eqAs8WvFWEB-ntIB8kaijAqEzXB1AC8bNvaM\nContent-Type: application/json\n",
			"headerData": [
				{
					"key": "Authorization",
					"value": "Bearer eyJhbGciOiJIUzI1NiIsInR5cCI6IkpXVCJ9.eyJpc3MiOiJteS1hcHAiLCJpYXQiOiIyMDE1LTEwLTA5VDA1OjExOjI3LjUzNzc3MjdaIiwiZXhwIjpudWxsLCJzdWIiOm51bGwsInRlbmFudCI6Im15LXRlbmFudCIsInNjb3BlIjpudWxsfQ.vVcomx0eqAs8WvFWEB-ntIB8kaijAqEzXB1AC8bNvaM",
					"description": "",
					"enabled": true
				},
				{
					"key": "Content-Type",
					"value": "application/json",
					"description": "",
					"enabled": true
				}
			],
			"url": "http://docitt.dev.lendfoundry.com:5004/EmailSent",
			"queryParams": [],
			"preRequestScript": null,
			"pathVariables": {},
			"pathVariableData": [],
			"method": "POST",
			"data": [],
			"dataMode": "raw",
			"version": 2,
			"tests": null,
			"currentHelper": "normal",
			"helperAttributes": {},
			"time": 1499249594796,
			"name": "Call Event EmailSent",
			"description": "",
			"collectionId": "e5f20cff-041f-6e70-a049-37f99732115b",
			"responses": [],
			"rawModeData": "{\r\n    \"EntityId\" : \"TMP0000002116\",\r\n    \"Recipient\" : \"test test test\",\r\n    \"Email\" : \"vijay.k@gmail.com\",\r\n    \"Subject\" : \"Reminder Email\",\r\n    \"Body\" : \"Email Body\"\r\n}"
		},
		{
			"id": "e3bfdbd3-9dfa-40ce-9fcd-3a69de96abcc",
			"headers": "Authorization: Bearer eyJhbGciOiJIUzI1NiIsInR5cCI6IkpXVCJ9.eyJpc3MiOiJteS1hcHAiLCJpYXQiOiIyMDE1LTEwLTA5VDA1OjExOjI3LjUzNzc3MjdaIiwiZXhwIjpudWxsLCJzdWIiOm51bGwsInRlbmFudCI6Im15LXRlbmFudCIsInNjb3BlIjpudWxsfQ.vVcomx0eqAs8WvFWEB-ntIB8kaijAqEzXB1AC8bNvaM\nContent-Type: application/json\n",
			"headerData": [
				{
					"key": "Authorization",
					"value": "Bearer eyJhbGciOiJIUzI1NiIsInR5cCI6IkpXVCJ9.eyJpc3MiOiJteS1hcHAiLCJpYXQiOiIyMDE1LTEwLTA5VDA1OjExOjI3LjUzNzc3MjdaIiwiZXhwIjpudWxsLCJzdWIiOm51bGwsInRlbmFudCI6Im15LXRlbmFudCIsInNjb3BlIjpudWxsfQ.vVcomx0eqAs8WvFWEB-ntIB8kaijAqEzXB1AC8bNvaM",
					"description": "",
					"enabled": true
				},
				{
					"key": "Content-Type",
					"value": "application/json",
					"description": "",
					"enabled": true
				}
			],
			"url": "http://docitt.dev.lendfoundry.com:5004/UserLoggedIn",
			"queryParams": [],
			"preRequestScript": null,
			"pathVariables": {},
			"pathVariableData": [],
			"method": "POST",
			"data": [],
			"dataMode": "raw",
			"version": 2,
			"tests": null,
			"currentHelper": "normal",
			"helperAttributes": {},
			"time": 1499081820649,
			"name": "Call Event UserLoggedIn",
			"description": "",
			"collectionId": "e5f20cff-041f-6e70-a049-37f99732115b",
			"responses": [],
			"isFromCollection": true,
			"collectionRequestId": "8361a476-c5e6-016e-57c4-5ccbdf6504be",
			"folder": "dbd0152b-b667-4ac9-fbf4-35ee7813d563",
			"rawModeData": "{\r\n\t\"Username\" : \"mohammedzaid.c@sigmainfo.net\"\r\n}"
		},
		{
			"id": "f7b8f2b0-f2f0-0fac-03ea-67a40b2e5371",
			"headers": "Authorization: Bearer eyJhbGciOiJIUzI1NiIsInR5cCI6IkpXVCJ9.eyJpc3MiOiJteS1hcHAiLCJpYXQiOiIyMDE1LTEwLTA5VDA1OjExOjI3LjUzNzc3MjdaIiwiZXhwIjpudWxsLCJzdWIiOm51bGwsInRlbmFudCI6Im15LXRlbmFudCIsInNjb3BlIjpudWxsfQ.vVcomx0eqAs8WvFWEB-ntIB8kaijAqEzXB1AC8bNvaM\nContent-Type: application/json\n",
			"headerData": [
				{
					"key": "Authorization",
					"value": "Bearer eyJhbGciOiJIUzI1NiIsInR5cCI6IkpXVCJ9.eyJpc3MiOiJteS1hcHAiLCJpYXQiOiIyMDE1LTEwLTA5VDA1OjExOjI3LjUzNzc3MjdaIiwiZXhwIjpudWxsLCJzdWIiOm51bGwsInRlbmFudCI6Im15LXRlbmFudCIsInNjb3BlIjpudWxsfQ.vVcomx0eqAs8WvFWEB-ntIB8kaijAqEzXB1AC8bNvaM",
					"description": "",
					"enabled": true
				},
				{
					"key": "Content-Type",
					"value": "application/json",
					"description": "",
					"enabled": true
				}
			],
			"url": "http://docitt.dev.lendfoundry.com:5084/all",
			"queryParams": [],
			"preRequestScript": null,
			"pathVariables": {},
			"pathVariableData": [],
			"method": "GET",
			"data": null,
			"dataMode": "params",
			"version": 2,
			"tests": null,
			"currentHelper": "normal",
			"helperAttributes": {},
			"time": 1499246949253,
			"name": "Get Application List",
			"description": "",
			"collectionId": "e5f20cff-041f-6e70-a049-37f99732115b",
			"responses": [],
			"isFromCollection": true,
			"collectionRequestId": "f7b8f2b0-f2f0-0fac-03ea-67a40b2e5371",
			"folder": "f2d0cb40-61e8-adad-cd90-9f93c375ad49"
		}
	]
}