{
  "profiles": {
    "kestrel": {
      "commandName": "Project",
      "environmentVariables": {
        "EVENTHUB_URL": "http://10.100.0.12:5004",
        "CONFIGURATION_NAME": "questionnaire-filters",
        "NATS_URL": "nats://10.100.0.12:4222",
        "CONFIGURATION_URL": "http://10.100.0.12:5008",
        "TENANT_URL": "http://10.100.0.12:5014",
        "LOG_LEVEL": "Debug"
      }
    }
  }
}